{
  "name": "vol au théâtre",
  "listItems": [
    {
      "name": "theater",
      "kind": "building",
      "isClue": false
    },
    {
      "name": "scene",
      "kind": "item",
      "isClue": false
    },
    {
      "name": "curtain",
      "kind": "item",
      "isClue": false
    },
    {
      "name": "fingerprint",
      "kind": "item",
      "isClue": false
    }
  ],
  "listChoices": [
    {
      "name": "butler",
      "kind": "character",
      "description": [
        {
          "name": "ticket",
          "kind": "item"
        },
        {
          "name": "flask",
          "kind": "item"
        },
        {
          "name": "gun",
          "kind": "item"
        }
      ],
      "isClue": false
    },
    {
      "name": "doctor",
      "kind": "character",
      "description": [
        {
          "name": "ticket",
          "kind": "item"
        },
        {
          "name": "injecting-syringe",
          "kind": "item"
        },
        {
          "name": "stethoscope",
          "kind": "item"
        },
        {
          "name": "wanted",
          "kind": "item"
        }
      ],
      "isClue": true
    },
    {
      "name": "artist",
      "kind": "character",
      "description": [
        {
          "name": "ticket",
          "kind": "item"
        },
        {
          "name": "evidence-1",
          "kind": "item"
        },
        {
          "name": "theatre",
          "kind": "item"
        }
      ],
      "isClue": true
    },
    {
      "name": "firefighter",
      "kind": "character",
      "description": [
        {
          "name": "butterfly-knife",
          "kind": "item"
        },
        {
          "name": "ticket",
          "kind": "item"
        },
        {
          "name": "whistle",
          "kind": "item"
        }
      ],
      "isClue": false
    }
  ],
  "solution": "doctor",
  "reward": "money"
}